{
  "title": "Ancient Black Dragon",
  "name": "dragon",
  "pronoun": "it",
  "theName": "the dragon",
  "size": "Gargantuan",
  "type": "dragon",
  "alignment": "chaotic evil",
  "speed": {
    "walk": 40,
    "fly": 80,
    "swim": 40
  },
  "hitPoints": 367,
  "hitDice": {
    "mod": 147,
    "dice": [
      {
        "n": 21,
        "d": 20
      }
    ],
    "average": 367,
    "text": "21d20 + 147"
  },
  "armor": [
    {
      "name": "natural armor",
      "baseAC": 11,
      "isAdditional": false,
      "ac": 22
    }
  ],
  "optimalArmor": [
    {
      "name": "natural armor",
      "baseAC": 11,
      "isAdditional": false,
      "ac": 22
    }
  ],
  "traitArmor": [],
  "saves": [
    "dex",
    "con",
    "wis",
    "cha"
  ],
  "skills": [
    "stealth"
  ],
  "expertise": [
    "perception"
  ],
  "adjustCR": 0,
  "scores": {
    "str": 27,
    "dex": 14,
    "con": 25,
    "int": 16,
    "wis": 15,
    "cha": 19
  },
  "damageVulnerabilities": {
    "desc": "",
    "affectsCR": false
  },
  "damageResistances": {
    "desc": "",
    "affectsCR": false
  },
  "damageImmunities": {
    "desc": "acid",
    "affectsCR": false
  },
  "conditionImmunities": [],
  "senses": {
    "darkvision": 120,
    "blindsight": 60
  },
  "languages": [
    "Common",
    "Draconic"
  ],
  "traits": [
    {
      "canonicalName": "Amphibious",
      "props": {},
      "tmpl": {
        "name": "Amphibious",
        "type": "Ability"
      },
      "type": "Ability",
      "adjust": {},
      "setStats": {}
    },
    {
      "canonicalName": "Legendary Resistance",
      "props": {
        "number": 3
      },
      "tmpl": {
        "canonicalName": "Legendary Resistance",
        "type": "Ability"
      },
      "type": "Ability",
      "adjust": {},
      "setStats": {}
    },
    {
      "canonicalName": "Multiattack",
      "props": {
        "multiattack": [
          {
            "frightful presence": 1,
            "bite": 1,
            "claws": 2
          }
        ]
      },
      "tmpl": {
        "name": "Multiattack",
        "type": "Action"
      },
      "desc": "The dragon can use its Frightful Presence. It then makes three\nattacks: one with its bite and two with its claws.\n",
      "type": "Action",
      "adjust": {},
      "setStats": {}
    },
    {
      "canonicalName": "Bite",
      "props": {
        "weapon": "Bite",
        "weaponType": "melee",
        "attackType": "weapon",
        "baseDamage": {
          "type": "piercing",
          "amount": {
            "mod": 0,
            "dice": [
              {
                "n": 2,
                "d": 10
              }
            ],
            "average": 11,
            "text": "2d10"
          }
        },
        "omitDamageModifier": false,
        "extraDamage": [
          {
            "type": "acid",
            "amount": {
              "mod": 0,
              "dice": [
                {
                  "n": 2,
                  "d": 8
                }
              ],
              "average": 9,
              "text": "2d8"
            }
          }
        ],
        "adjustForSize": false,
        "reach": 5,
        "finesse": true,
        "targets": "one target"
      },
      "tmpl": {
        "type": "Action",
        "canonicalName": "Bite"
      },
      "type": "Action",
      "adjust": {},
      "setStats": {}
    },
    {
      "canonicalName": "Claw",
      "props": {
        "weapon": "Claw",
        "weaponType": "melee",
        "attackType": "weapon",
        "baseDamage": {
          "type": "slashing",
          "amount": {
            "mod": 0,
            "dice": [
              {
                "n": 2,
                "d": 6
              }
            ],
            "average": 7,
            "text": "2d6"
          }
        },
        "omitDamageModifier": false,
        "extraDamage": [],
        "adjustForSize": false,
        "reach": 5,
        "finesse": true,
        "targets": "one target"
      },
      "tmpl": {
        "type": "Action",
        "canonicalName": "Claw"
      },
      "type": "Action",
      "adjust": {},
      "setStats": {}
    },
    {
      "canonicalName": "Tail",
      "props": {
        "weapon": "Tail",
        "weaponType": "melee",
        "attackType": "weapon",
        "baseDamage": {
          "type": "bludgeoning",
          "amount": {
            "mod": 0,
            "dice": [
              {
                "n": 2,
                "d": 8
              }
            ],
            "average": 9,
            "text": "2d8"
          }
        },
        "omitDamageModifier": false,
        "extraDamage": [],
        "adjustForSize": false,
        "reach": 5,
        "finesse": true,
        "targets": "one target"
      },
      "tmpl": {
        "type": "Action",
        "canonicalName": "Tail"
      },
      "type": "Action",
      "adjust": {},
      "setStats": {}
    },
    {
      "canonicalName": "Frightful Presence",
      "props": {},
      "tmpl": {
        "name": "Frightful Presence",
        "type": "Action"
      },
      "type": "Action",
      "adjust": {},
      "setStats": {}
    },
    {
      "canonicalName": "Breath Weapon",
      "props": {
        "damage": {
          "type": "acid",
          "amount": {
            "mod": 0,
            "dice": [
              {
                "n": 15,
                "d": 8
              }
            ],
            "average": 67,
            "text": "15d8"
          }
        },
        "width": 10,
        "length": 90
      },
      "tmpl": {
        "canonicalName": "Breath Weapon",
        "type": "Action"
      },
      "type": "Action",
      "adjust": {},
      "setStats": {}
    }
  ],
  "legendaryActions": {
    "number": 3,
    "actions": [
      {
        "canonicalName": "Detect",
        "props": {},
        "tmpl": {
          "type": "Ability"
        },
        "name": "Detect",
        "desc": "The dragon makes a Wisdom (Perception) check",
        "type": "Ability",
        "adjust": {},
        "setStats": {}
      },
      {
        "canonicalName": "Tail",
        "props": {
          "action": "Tail"
        },
        "tmpl": {
          "type": "Action"
        },
        "type": "Action",
        "adjust": {},
        "setStats": {}
      },
      {
        "canonicalName": "Wing Attack",
        "props": {},
        "laCost": 2,
        "tmpl": {
          "type": "Ability"
        },
        "name": "Wing Attack",
        "desc": "The dragon beats its wings. Each creature within 15 feet of the dragon must succeed on a DC 23 Dexterity saving throw or take 15 (2d6 + 8) bludgeoning damage and be knocked prone. The dragon can then fly up to half its flying speed.\n",
        "type": "Ability",
        "adjust": {},
        "setStats": {
          "dc": {},
          "dpr": {}
        }
      }
    ]
  }
}