{
  "title": "Magmin",
  "name": "Magmin",
  "pronoun": "it",
  "theName": "the magmin",
  "size": "Small",
  "type": "elemental",
  "alignment": "chaotic neutral",
  "speed": {
    "walk": 30
  },
  "hitPoints": 9,
  "hitDice": {
    "mod": 2,
    "dice": [
      {
        "n": 2,
        "d": 6
      }
    ],
    "average": 9,
    "text": "2d6 + 2"
  },
  "armor": [
    {
      "name": "natural armor",
      "baseAC": 11,
      "isAdditional": false,
      "ac": 14
    }
  ],
  "optimalArmor": [
    {
      "name": "natural armor",
      "baseAC": 11,
      "isAdditional": false,
      "ac": 14
    }
  ],
  "traitArmor": [],
  "saves": [],
  "skills": [],
  "expertise": [],
  "adjustCR": 0,
  "scores": {
    "str": 7,
    "dex": 15,
    "con": 12,
    "int": 8,
    "wis": 11,
    "cha": 10
  },
  "damageVulnerabilities": {
    "desc": "",
    "affectsCR": false
  },
  "damageResistances": {
    "desc": "bludgeoning, piercing, and slashing from nonmagical weapons",
    "affectsCR": true
  },
  "damageImmunities": {
    "desc": "fire",
    "affectsCR": false
  },
  "conditionImmunities": [],
  "senses": {
    "darkvision": 60
  },
  "languages": [
    "Ignan"
  ],
  "traits": [
    {
      "canonicalName": "Death Burst",
      "props": {
        "damage": {
          "type": "bludgeoning",
          "amount": {
            "mod": 0,
            "dice": [
              {
                "n": 2,
                "d": 6
              }
            ],
            "average": 7,
            "text": "2d6"
          }
        }
      },
      "tmpl": {
        "name": "Death Burst",
        "type": "Ability"
      },
      "type": "Ability",
      "adjust": {},
      "setStats": {}
    },
    {
      "canonicalName": "Ignited Illumination",
      "props": {},
      "tmpl": {
        "type": "Ability"
      },
      "name": "Ignited Illumination",
      "desc": "As a bonus action, the magmin can set itself ablaze or extinguish its flames. While ablaze, the magmin sheds bright light in a 10-foot radius and dim light for an additional10 feet.",
      "type": "Ability",
      "adjust": {},
      "setStats": {}
    },
    {
      "canonicalName": "Touch",
      "props": {
        "weapon": "Touch",
        "weaponType": "melee",
        "attackType": "weapon",
        "baseDamage": {
          "type": "fire",
          "amount": {
            "mod": 0,
            "dice": [
              {
                "n": 2,
                "d": 6
              }
            ],
            "average": 7,
            "text": "2d6"
          }
        },
        "omitDamageModifier": true,
        "extraDamage": [],
        "adjustForSize": false,
        "reach": 5,
        "finesse": true,
        "targets": "one target"
      },
      "tmpl": {
        "type": "Action",
        "canonicalName": "Touch"
      },
      "desc": "${desc}. If the target is a creature or a flammable object, it ignites. Until a creature takes an action to douse the fire, the creature takes 3 (1d6) fire damage at the end of each of its turns.",
      "type": "Action",
      "adjust": {},
      "setStats": {}
    }
  ]
}